\relax 
\@writefile{toc}{\contentsline {section}{\numberline {1}Structural modeling}{1}\protected@file@percent }
\@writefile{lof}{\contentsline {figure}{\numberline {1}{\ignorespaces RTL netlist viewer screenshot}}{1}\protected@file@percent }
\@writefile{toc}{\contentsline {section}{\numberline {2}Seven Segment Display I}{2}\protected@file@percent }
\@writefile{toc}{\contentsline {section}{\numberline {3}Behavioral Simulation}{2}\protected@file@percent }
\@writefile{lof}{\contentsline {figure}{\numberline {2}{\ignorespaces Screenshot(s) showing the interval measurements}}{2}\protected@file@percent }
\@writefile{toc}{\contentsline {section}{\numberline {4}Postlayout Simulation}{3}\protected@file@percent }
\@writefile{lof}{\contentsline {figure}{\numberline {3}{\ignorespaces Screenshot showing the interval measurements}}{3}\protected@file@percent }
\@writefile{toc}{\contentsline {section}{\numberline {5}Testbench Design}{3}\protected@file@percent }
\@writefile{toc}{\contentsline {section}{\numberline {6}N64 Controller}{3}\protected@file@percent }
\@writefile{lof}{\contentsline {figure}{\numberline {4}{\ignorespaces Screenshot showing the transmission frame}}{4}\protected@file@percent }
\@writefile{lot}{\contentsline {table}{\numberline {1}{\ignorespaces Resource usage of the N64 controller.}}{5}\protected@file@percent }
\@writefile{toc}{\contentsline {section}{\numberline {7}Seven Segment Display II}{5}\protected@file@percent }
\@writefile{lof}{\contentsline {figure}{\numberline {5}{\ignorespaces FSM state graph}}{6}\protected@file@percent }
\@writefile{lof}{\contentsline {figure}{\numberline {6}{\ignorespaces Screenshot showing the conversion}}{7}\protected@file@percent }
\@writefile{lof}{\contentsline {figure}{\numberline {7}{\ignorespaces Screenshot showing all animation steps}}{7}\protected@file@percent }
\@writefile{toc}{\contentsline {section}{\numberline {8}Logic Analyzer Measurement}{7}\protected@file@percent }
\@writefile{lof}{\contentsline {figure}{\numberline {8}{\ignorespaces Screenshot showing the transmission of a whole UART frame sent from FPGA to PC.}}{7}\protected@file@percent }
\@writefile{lof}{\contentsline {figure}{\numberline {9}{\ignorespaces Screenshot showing the vsync interval}}{8}\protected@file@percent }
\@writefile{lof}{\contentsline {figure}{\numberline {10}{\ignorespaces Screenshot showing the low-period of the \textsf  {den} signal.}}{8}\protected@file@percent }
\@writefile{lof}{\contentsline {figure}{\numberline {11}{\ignorespaces Screenshot showing the advanced trigger settings}}{9}\protected@file@percent }
