{
	"partitions" : [
		{
			"name" : "Top",
			"pins" : [
				{
					"name" : "wm8731_dacdat",
					"strict" : false
				},
				{
					"name" : "wm8731_daclrck",
					"strict" : false
				},
				{
					"name" : "wm8731_bclk",
					"strict" : false
				},
				{
					"name" : "wm8731_sdat",
					"strict" : false
				},
				{
					"name" : "wm8731_sclk",
					"strict" : false
				},
				{
					"name" : "tx",
					"strict" : false
				},
				{
					"name" : "rx",
					"strict" : false
				},
				{
					"name" : "hex0[0]",
					"strict" : false
				},
				{
					"name" : "hex0[1]",
					"strict" : false
				},
				{
					"name" : "hex0[2]",
					"strict" : false
				},
				{
					"name" : "hex0[3]",
					"strict" : false
				},
				{
					"name" : "hex0[4]",
					"strict" : false
				},
				{
					"name" : "hex0[5]",
					"strict" : false
				},
				{
					"name" : "hex0[6]",
					"strict" : false
				},
				{
					"name" : "hex1[0]",
					"strict" : false
				},
				{
					"name" : "hex1[1]",
					"strict" : false
				},
				{
					"name" : "hex1[2]",
					"strict" : false
				},
				{
					"name" : "hex1[3]",
					"strict" : false
				},
				{
					"name" : "hex1[4]",
					"strict" : false
				},
				{
					"name" : "hex1[5]",
					"strict" : false
				},
				{
					"name" : "hex1[6]",
					"strict" : false
				},
				{
					"name" : "hex2[0]",
					"strict" : false
				},
				{
					"name" : "hex2[1]",
					"strict" : false
				},
				{
					"name" : "hex2[2]",
					"strict" : false
				},
				{
					"name" : "hex2[3]",
					"strict" : false
				},
				{
					"name" : "hex2[4]",
					"strict" : false
				},
				{
					"name" : "hex2[5]",
					"strict" : false
				},
				{
					"name" : "hex2[6]",
					"strict" : false
				},
				{
					"name" : "hex3[0]",
					"strict" : false
				},
				{
					"name" : "hex3[1]",
					"strict" : false
				},
				{
					"name" : "hex3[2]",
					"strict" : false
				},
				{
					"name" : "hex3[3]",
					"strict" : false
				},
				{
					"name" : "hex3[4]",
					"strict" : false
				},
				{
					"name" : "hex3[5]",
					"strict" : false
				},
				{
					"name" : "hex3[6]",
					"strict" : false
				},
				{
					"name" : "hex6[0]",
					"strict" : false
				},
				{
					"name" : "hex6[1]",
					"strict" : false
				},
				{
					"name" : "hex6[2]",
					"strict" : false
				},
				{
					"name" : "hex6[3]",
					"strict" : false
				},
				{
					"name" : "hex6[4]",
					"strict" : false
				},
				{
					"name" : "hex6[5]",
					"strict" : false
				},
				{
					"name" : "hex6[6]",
					"strict" : false
				},
				{
					"name" : "hex7[0]",
					"strict" : false
				},
				{
					"name" : "hex7[1]",
					"strict" : false
				},
				{
					"name" : "hex7[2]",
					"strict" : false
				},
				{
					"name" : "hex7[3]",
					"strict" : false
				},
				{
					"name" : "hex7[4]",
					"strict" : false
				},
				{
					"name" : "hex7[5]",
					"strict" : false
				},
				{
					"name" : "hex7[6]",
					"strict" : false
				},
				{
					"name" : "ledr[0]",
					"strict" : false
				},
				{
					"name" : "ledr[1]",
					"strict" : false
				},
				{
					"name" : "ledr[2]",
					"strict" : false
				},
				{
					"name" : "ledr[3]",
					"strict" : false
				},
				{
					"name" : "ledr[4]",
					"strict" : false
				},
				{
					"name" : "ledr[5]",
					"strict" : false
				},
				{
					"name" : "ledr[6]",
					"strict" : false
				},
				{
					"name" : "ledr[7]",
					"strict" : false
				},
				{
					"name" : "ledr[8]",
					"strict" : false
				},
				{
					"name" : "ledr[9]",
					"strict" : false
				},
				{
					"name" : "ledr[10]",
					"strict" : false
				},
				{
					"name" : "ledr[11]",
					"strict" : false
				},
				{
					"name" : "ledr[12]",
					"strict" : false
				},
				{
					"name" : "ledr[13]",
					"strict" : false
				},
				{
					"name" : "hd",
					"strict" : false
				},
				{
					"name" : "vd",
					"strict" : false
				},
				{
					"name" : "den",
					"strict" : false
				},
				{
					"name" : "r[0]",
					"strict" : false
				},
				{
					"name" : "r[1]",
					"strict" : false
				},
				{
					"name" : "r[2]",
					"strict" : false
				},
				{
					"name" : "r[3]",
					"strict" : false
				},
				{
					"name" : "r[4]",
					"strict" : false
				},
				{
					"name" : "r[5]",
					"strict" : false
				},
				{
					"name" : "r[6]",
					"strict" : false
				},
				{
					"name" : "r[7]",
					"strict" : false
				},
				{
					"name" : "g[0]",
					"strict" : false
				},
				{
					"name" : "g[1]",
					"strict" : false
				},
				{
					"name" : "g[2]",
					"strict" : false
				},
				{
					"name" : "g[3]",
					"strict" : false
				},
				{
					"name" : "g[4]",
					"strict" : false
				},
				{
					"name" : "g[5]",
					"strict" : false
				},
				{
					"name" : "g[6]",
					"strict" : false
				},
				{
					"name" : "g[7]",
					"strict" : false
				},
				{
					"name" : "b[0]",
					"strict" : false
				},
				{
					"name" : "b[1]",
					"strict" : false
				},
				{
					"name" : "b[2]",
					"strict" : false
				},
				{
					"name" : "b[3]",
					"strict" : false
				},
				{
					"name" : "b[4]",
					"strict" : false
				},
				{
					"name" : "b[5]",
					"strict" : false
				},
				{
					"name" : "b[6]",
					"strict" : false
				},
				{
					"name" : "b[7]",
					"strict" : false
				},
				{
					"name" : "grest",
					"strict" : false
				},
				{
					"name" : "n64_data",
					"strict" : false
				},
				{
					"name" : "switches[17]",
					"strict" : false
				},
				{
					"name" : "switches[13]",
					"strict" : false
				},
				{
					"name" : "switches[12]",
					"strict" : false
				},
				{
					"name" : "keys[0]",
					"strict" : false
				},
				{
					"name" : "switches[1]",
					"strict" : false
				},
				{
					"name" : "switches[0]",
					"strict" : false
				},
				{
					"name" : "switches[3]",
					"strict" : false
				},
				{
					"name" : "switches[2]",
					"strict" : false
				},
				{
					"name" : "switches[10]",
					"strict" : false
				},
				{
					"name" : "switches[8]",
					"strict" : false
				},
				{
					"name" : "switches[9]",
					"strict" : false
				},
				{
					"name" : "switches[11]",
					"strict" : false
				},
				{
					"name" : "switches[4]",
					"strict" : false
				},
				{
					"name" : "switches[5]",
					"strict" : false
				},
				{
					"name" : "switches[6]",
					"strict" : false
				},
				{
					"name" : "switches[7]",
					"strict" : false
				}
			]
		}
	]
}